001DylogTracciatoRecordImportazioneRel.01.16.00                                                            
010100009294100962 122018O0
0702018-07-170000000000C 099 Incassato ddt 6593-6595-6597-6600-6602-6606-6611-6          2018-07-17000000000000000000000000000969+000000000000000000 E    00000000000000C 0000000000            000000000000000000 000000000000000000                               0 00:00:00  000000000000000000 000000000000000000 
073155000100001Incassato ddt 6593-6595-6597-6600-6602-6606-6611-6000000000000000969+A        
073155000100001Incassato ddt 6593-6595-6597-6600-6602-6606-6611-6000000000000000969+A        
0702018-07-170000000000C 099 incassato Acc. Vigna                                        2018-07-17000000000000000000000000001000+000000000000000000 E    00000000000000C 0000000000            000000000000000000 000000000000000000                               0 00:00:00  000000000000000000 000000000000000000 
073155000100002incassato Acc. Vigna                              000000000000001000+A        
073155000100002incassato Acc. Vigna                              000000000000001000+A        
0702018-07-170000000000C 099 incassato E/C Biscione ddt                                  2018-07-17000000000000000000000000000199+000000000000000000 E    00000000000000C 0000000000            000000000000000000 000000000000000000                               0 00:00:00  000000000000000000 000000000000000000 
073155000100003incassato E/C Biscione ddt                        000000000000000199+A        
073155000100003incassato E/C Biscione ddt                        000000000000000199+A        
0702018-07-170000000000C 099 incassato creperia ddt                                      2018-07-17000000000000000000000000000015+000000000000000000 E    00000000000000C 0000000000            000000000000000000 000000000000000000                               0 00:00:00  000000000000000000 000000000000000000 
073155000100004incassato creperia ddt                            000000000000000015+A        
073155000100004incassato creperia ddt                            000000000000000015+A        
0702018-07-170000000000C 099 incassato E/C Hasekura                                      2018-07-17000000000000000000000000000167+000000000000000000 E    00000000000000C 0000000000            000000000000000000 000000000000000000                               0 00:00:00  000000000000000000 000000000000000000 
073155000100005incassato E/C Hasekura                            000000000000000167+A        
073155000100005incassato E/C Hasekura                            000000000000000167+A        
0702018-07-170000000000C 099 Incassato ddt 6595 Iris                                     2018-07-17000000000000000000000000000019+000000000000000000 E    00000000000000C 0000000000            000000000000000000 000000000000000000                               0 00:00:00  000000000000000000 000000000000000000 
073155000100006Incassato ddt 6595 Iris                           000000000000000019+A        
073155000100006Incassato ddt 6595 Iris                           000000000000000019+A        
0702018-07-170000000000C 099 incassato E/C Panino Ing                                    2018-07-17000000000000000000000000000270+000000000000000000 E    00000000000000C 0000000000            000000000000000000 000000000000000000                               0 00:00:00  000000000000000000 000000000000000000 
073155000100007incassato E/C Panino Ing                          000000000000000270+A        
073155000100007incassato E/C Panino Ing                          000000000000000270+A        
0702018-07-170000000000C 099 Incassato estratto conto ddt 5763-5799-5873-5901-6          2018-07-17000000000000000000000000000528+000000000000000000 E    00000000000000C 0000000000            000000000000000000 000000000000000000                               0 00:00:00  000000000000000000 000000000000000000 
073155000100008Incassato estratto conto ddt 5763-5799-5873-5901-6000000000000000528+A        
073155000100008Incassato estratto conto ddt 5763-5799-5873-5901-6000000000000000528+A        
0702018-07-170000000000C 099 Incassato fatt dal 2/07 al 7/07 La vacca                    2018-07-17000000000000000000000000000989+000000000000000000 E    00000000000000C 0000000000            000000000000000000 000000000000000000                               0 00:00:00  000000000000000000 000000000000000000 
073155000100009Incassato fatt dal 2/07 al 7/07 La vacca          000000000000000989+A        
073155000100009Incassato fatt dal 2/07 al 7/07 La vacca          000000000000000989+A        
0702018-07-170000000000C 099 Incassato fatt 583 Codemotion                               2018-07-17000000000000000000000000000369+000000000000000000 E    00000000000000C 0000000000            000000000000000000 000000000000000000                               0 00:00:00  000000000000000000 000000000000000000 
073155000100010Incassato fatt 583 Codemotion                     000000000000000369+A        
073155000100010Incassato fatt 583 Codemotion                     000000000000000369+A        
0702018-07-170000000000C 099 Incassato fatt 545 BL                                       2018-07-17000000000000000000000000003665+000000000000000000 E    00000000000000C 0000000000            000000000000000000 000000000000000000                               0 00:00:00  000000000000000000 000000000000000000 
073155000100011Incassato fatt 545 BL                             000000000000003665+A        
073155000100011Incassato fatt 545 BL                             000000000000003665+A        
0702018-07-170000000000C 099 Incassato fatt 626 Iris                                     2018-07-17000000000000000000000000000101+000000000000000000 E    00000000000000C 0000000000            000000000000000000 000000000000000000                               0 00:00:00  000000000000000000 000000000000000000 
073155000100012Incassato fatt 626 Iris                           000000000000000101+A        
073155000100012Incassato fatt 626 Iris                           000000000000000101+A        
0702018-07-170000000000C 099 Incassato fatt giugno Ariston                               2018-07-17000000000000000000000000005866+000000000000000000 E    00000000000000C 0000000000            000000000000000000 000000000000000000                               0 00:00:00  000000000000000000 000000000000000000 
073155000100013Incassato fatt giugno Ariston                     000000000000005866+A        
073155000100013Incassato fatt giugno Ariston                     000000000000005866+A        
0702018-07-170000000000C 099 Incassato ddt 5701-5675-6132-6188-6228 Occhi di Ga          2018-07-17000000000000000000000000000436+000000000000000000 E    00000000000000C 0000000000            000000000000000000 000000000000000000                               0 00:00:00  000000000000000000 000000000000000000 
073155000100014Incassato ddt 5701-5675-6132-6188-6228 Occhi di Ga000000000000000436+A        
073155000100014Incassato ddt 5701-5675-6132-6188-6228 Occhi di Ga000000000000000436+A        
0702018-07-170000000000C 099 Pagato fatt Faic                                            2018-07-17000000000000000000000000000024-000000000000000000 E    00000000000000C 0000000000            000000000000000000 000000000000000000                               0 00:00:00  000000000000000000 000000000000000000 
073235000100001Pagato fatt Faic                                  000000000000000024-D        
073235000100001Pagato fatt Faic                                  000000000000000024-D        
0702018-07-170000000000C 099 Pagato fattura Bino                                         2018-07-17000000000000000000000000000750-000000000000000000 E    00000000000000C 0000000000            000000000000000000 000000000000000000                               0 00:00:00  000000000000000000 000000000000000000 
073235000100002Pagato fattura Bino                               000000000000000750-D        
073235000100002Pagato fattura Bino                               000000000000000750-D        
0702018-07-170000000000C 099 Pagato  Stipendio + 14 ema Marasa                           2018-07-17000000000000000000000000002203-000000000000000000 E    00000000000000C 0000000000            000000000000000000 000000000000000000                               0 00:00:00  000000000000000000 000000000000000000 
073160001300001Pagato  Stipendio + 14 ema Marasa                 000000000000002203-D        
073160001300001Pagato  Stipendio + 14 ema Marasa                 000000000000002203-D        
0702018-07-170000000000C 099 Pagato  Stipendio + 14 ema Pellegrini                       2018-07-17000000000000000000000000001763-000000000000000000 E    00000000000000C 0000000000            000000000000000000 000000000000000000                               0 00:00:00  000000000000000000 000000000000000000 
073160001300001Pagato  Stipendio + 14 ema Pellegrini             000000000000001763-D        
073160001300001Pagato  Stipendio + 14 ema Pellegrini             000000000000001763-D        
0702018-07-170000000000C 099 Pagato  Stipendio + 14 ema Sinigaglia                       2018-07-17000000000000000000000000001746-000000000000000000 E    00000000000000C 0000000000            000000000000000000 000000000000000000                               0 00:00:00  000000000000000000 000000000000000000 
073160001300001Pagato  Stipendio + 14 ema Sinigaglia             000000000000001746-D        
073160001300001Pagato  Stipendio + 14 ema Sinigaglia             000000000000001746-D        
0702018-07-170000000000C 099 Pagato  Stipendio + 14 ema Brocchetti                       2018-07-17000000000000000000000000002781-000000000000000000 E    00000000000000C 0000000000            000000000000000000 000000000000000000                               0 00:00:00  000000000000000000 000000000000000000 
073160001300001Pagato  Stipendio + 14 ema Brocchetti             000000000000002781-D        
073160001300001Pagato  Stipendio + 14 ema Brocchetti             000000000000002781-D        
0702018-07-170000000000C 099 Pagato  Stipendio + 14 ema Puglioli                         2018-07-17000000000000000000000000002580-000000000000000000 E    00000000000000C 0000000000            000000000000000000 000000000000000000                               0 00:00:00  000000000000000000 000000000000000000 
073160001300001Pagato  Stipendio + 14 ema Puglioli               000000000000002580-D        
073160001300001Pagato  Stipendio + 14 ema Puglioli               000000000000002580-D        
0702018-07-170000000000C 099 Pagato  fattura Pierangelo                                  2018-07-17000000000000000000000000001310-000000000000000000 E    00000000000000C 0000000000            000000000000000000 000000000000000000                               0 00:00:00  000000000000000000 000000000000000000 
073160001300001Pagato  fattura Pierangelo                        000000000000001310-D        
073160001300001Pagato  fattura Pierangelo                        000000000000001310-D        
0702018-07-170000000000C 099 Pagato  Stipendio + 14 ema Procentese                       2018-07-17000000000000000000000000001872-000000000000000000 E    00000000000000C 0000000000            000000000000000000 000000000000000000                               0 00:00:00  000000000000000000 000000000000000000 
073160001300001Pagato  Stipendio + 14 ema Procentese             000000000000001872-D        
073160001300001Pagato  Stipendio + 14 ema Procentese             000000000000001872-D        
0702018-07-170000000000C 099 Pagato  Stipendio + 14 ema Singh Gurjant                    2018-07-17000000000000000000000000002061-000000000000000000 E    00000000000000C 0000000000            000000000000000000 000000000000000000                               0 00:00:00  000000000000000000 000000000000000000 
073160001300001Pagato  Stipendio + 14 ema Singh Gurjant          000000000000002061-D        
073160001300001Pagato  Stipendio + 14 ema Singh Gurjant          000000000000002061-D        
0702018-07-170000000000C 099 Pagato  Stipendio + 14 ema Gelati                           2018-07-17000000000000000000000000002268-000000000000000000 E    00000000000000C 0000000000            000000000000000000 000000000000000000                               0 00:00:00  000000000000000000 000000000000000000 
073160001300001Pagato  Stipendio + 14 ema Gelati                 000000000000002268-D        
073160001300001Pagato  Stipendio + 14 ema Gelati                 000000000000002268-D        
0702018-07-170000000000C 099 Pagato  fatture Lventure 490-491-515-516                    2018-07-17000000000000000000000000012200-000000000000000000 E    00000000000000C 0000000000            000000000000000000 000000000000000000                               0 00:00:00  000000000000000000 000000000000000000 
073235000100051Pagato  fatture Lventure 490-491-515-516          000000000000012200-D        
073235000100051Pagato  fatture Lventure 490-491-515-516          000000000000012200-D        
0702018-07-180000000000C 099 Incassati ddt 6651-6655-6669-6670-6673-6675-6678-6          2018-07-18000000000000000000000000001357+000000000000000000 E    00000000000000C 0000000000            000000000000000000 000000000000000000                               0 00:00:00  000000000000000000 000000000000000000 
073155000100001Incassati ddt 6651-6655-6669-6670-6673-6675-6678-6000000000000001357+A        
073155000100001Incassati ddt 6651-6655-6669-6670-6673-6675-6678-6000000000000001357+A        
0702018-07-180000000000C 099 Incasato ddt 6641 Biscione                                  2018-07-18000000000000000000000000000039+000000000000000000 E    00000000000000C 0000000000            000000000000000000 000000000000000000                               0 00:00:00  000000000000000000 000000000000000000 
073155000100002Incasato ddt 6641 Biscione                        000000000000000039+A        
073155000100002Incasato ddt 6641 Biscione                        000000000000000039+A        
0702018-07-180000000000C 099 Incasato ddt 6642 Gelati di Pietra                          2018-07-18000000000000000000000000000038+000000000000000000 E    00000000000000C 0000000000            000000000000000000 000000000000000000                               0 00:00:00  000000000000000000 000000000000000000 
073155000100003Incasato ddt 6642 Gelati di Pietra                000000000000000038+A        
073155000100003Incasato ddt 6642 Gelati di Pietra                000000000000000038+A        
0702018-07-180000000000C 099 Incassato ec Mizio                                          2018-07-18000000000000000000000000000099+000000000000000000 E    00000000000000C 0000000000            000000000000000000 000000000000000000                               0 00:00:00  000000000000000000 000000000000000000 
073155000100004Incassato ec Mizio                                000000000000000099+A        
073155000100004Incassato ec Mizio                                000000000000000099+A        
0702018-07-180000000000C 099 Saldo Fattura Faic                                          2018-07-18000000000000000000000000000016-000000000000000000 E    00000000000000C 0000000000            000000000000000000 000000000000000000                               0 00:00:00  000000000000000000 000000000000000000 
073155000100005Saldo Fattura Faic                                000000000000000016-D        
073155000100005Saldo Fattura Faic                                000000000000000016-D        
0702018-07-180000000000C 099 Incassato ddt 6445-6520 Cat Bistrot                         2018-07-18000000000000000000000000000158+000000000000000000 E    00000000000000C 0000000000            000000000000000000 000000000000000000                               0 00:00:00  000000000000000000 000000000000000000 
073155000100006Incassato ddt 6445-6520 Cat Bistrot               000000000000000158+A        
073155000100006Incassato ddt 6445-6520 Cat Bistrot               000000000000000158+A        
0702018-07-180000000000C 099 Pagato fatt Panapesca Aprile                                2018-07-18000000000000000000000000001698-000000000000000000 E    00000000000000C 0000000000            000000000000000000 000000000000000000                               0 00:00:00  000000000000000000 000000000000000000 
073235000100009Pagato fatt Panapesca Aprile                      000000000000001698-D        
073235000100009Pagato fatt Panapesca Aprile                      000000000000001698-D        
0702018-07-180000000000C 099 Pagato fatt Metro Maggio                                    2018-07-18000000000000000000000000000617-000000000000000000 E    00000000000000C 0000000000            000000000000000000 000000000000000000                               0 00:00:00  000000000000000000 000000000000000000 
073235000100036Pagato fatt Metro Maggio                          000000000000000617-D        
073235000100036Pagato fatt Metro Maggio                          000000000000000617-D        
0702018-07-180000000000C 099 Pagato fatt Brandimarte Aprile                              2018-07-18000000000000000000000000002756-000000000000000000 E    00000000000000C 0000000000            000000000000000000 000000000000000000                               0 00:00:00  000000000000000000 000000000000000000 
073235000100051Pagato fatt Brandimarte Aprile                    000000000000002756-D        
073235000100051Pagato fatt Brandimarte Aprile                    000000000000002756-D        
0702018-07-180000000000C 099 Pagato fatt Maggio Rotonda                                  2018-07-18000000000000000000000000000792-000000000000000000 E    00000000000000C 0000000000            000000000000000000 000000000000000000                               0 00:00:00  000000000000000000 000000000000000000 
073235000100002Pagato fatt Maggio Rotonda                        000000000000000792-D        
073235000100002Pagato fatt Maggio Rotonda                        000000000000000792-D        
0702018-07-180000000000C 099 Pagato assegno fattura Mandarini ab 2606445231-00           2018-07-18000000000000000000000000012009-000000000000000000 E    00000000000000C 0000000000            000000000000000000 000000000000000000                               0 00:00:00  000000000000000000 000000000000000000 
073235000100051Pagato assegno fattura Mandarini ab 2606445231-00 000000000000012009-D        
073235000100051Pagato assegno fattura Mandarini ab 2606445231-00 000000000000012009-D        
0702018-07-180000000000C 099 Pagato fatt Fruit Service                                   2018-07-18000000000000000000000000001647-000000000000000000 E    00000000000000C 0000000000            000000000000000000 000000000000000000                               0 00:00:00  000000000000000000 000000000000000000 
073235000100002Pagato fatt Fruit Service                         000000000000001647-D        
073235000100002Pagato fatt Fruit Service                         000000000000001647-D        
